…
```{r create, echo = TRUE, eval = FALSE}
# generate a hyperlink activity network
activity_net <- Create(hyperlinks, "activity")

# generate a hyperlink actor network
actor_net <- Create(hyperlinks, "actor")
# Generating web actor network...
# Done.
```

The output of the network creation is a named list of two dataframes, one for the `nodes` and the other for the `edges` or edge list data. The example below shows the `actor_net`. Note that the edges of the `actor` network are also aggregated into a weight value and that actors can link to themselves forming self-loops.

```{r network, echo = TRUE, eval = FALSE}
print(as_tibble(actor_net$nodes))
# # A tibble: 185 x 2
#   id                              link_id
#   <chr>                             <int>
# 1 accounts.google.com                   1
# 2 alumni.kellogg.northwestern.edu       2
# 3 anu.edu.au                            3
# # ... with 182 more rows

print(as_tibble(actor_net$edges))
# # A tibble: 226 x 3
#   from            to              weight
#   <chr>           <chr>            <int>
# 1 rsss.anu.edu.au anu.edu.au           2
# 2 rsss.anu.edu.au rsss.anu.edu.au     36
# 3 rsss.anu.edu.au soundcloud.com       1
# # ... with 223 more rows
```
…
