Twitter Conversation Networks
…
When completed, a list of named dataframes will be returned, with
tweets containing all of the tweets and their metadata, and
users containing all of the referenced users in the tweets
and their metadata. In our example, 286 tweets were collected with 180
associated users public metadata.

Note that the collection of a threaded tweet conversation is a
snapshot of the state of the conversation at a point in time. Metrics
and networks produced from our data will not completely match subsequent
collections of the same conversation, as it will have likely
cumulatively expanded over time.

# collected tweets
print(tweets$tweets, n = 3)
# # A tibble: 286 x 14
#   in_reply_to_user~ conversation_id  source  author_id  tweet_id  ref_tweet_type
#   <chr>             <chr>            <chr>   <chr>      <chr>     <chr>         
# 1 15999~            137631189762495~ Twitte~ 134852208~ 13763373~ replied_to    
# 2 1142316897985163~ 137631189762495~ Twitte~ 126908387~ 13763373~ replied_to    
# 3 25683~            137631189762495~ Twitte~ 137503906~ 13763371~ replied_to    
# # ... with 283 more rows, and 8 more variables: ref_tweet_id <chr>, text <chr>,
# #   created_at <chr>, includes <chr>, public_metrics.retweet_count <int>,
# #   public_metrics.reply_count <int>, public_metrics.like_count <int>,
# #   public_metrics.quote_count <int>

# users metadata
print(tweets$users, n = 3)
# # A tibble: 180 x 12
#   profile.username profile.created_~ profile.profile_~ user_id profile.descript~
#   <chr>            <chr>             <chr>             <chr>   <chr>            
# 1 MSMW~            2013-03-30T06:48~ https://pbs.twim~ 131592~ "Fact checking i~
# 2 bpro~            2012-12-04T02:07~ https://pbs.twim~ 987844~ "Only way to get~
# 3 scre~            2009-10-22T22:56~ https://pbs.twim~ 844463~ "I'm a  creative~
# # ... with 177 more rows, and 7 more variables: profile.name <chr>,
# #   profile.verified <lgl>, profile.location <chr>,
# #   profile.public_metrics.followers_count <int>,
# #   profile.public_metrics.following_count <int>,
# #   profile.public_metrics.tweet_count <int>,
# #   profile.public_metrics.listed_count <int>
…
# generate an activity network
activity_net <- tcn_network(tweets, "activity")

# number of nodes
nrow(activity_net$nodes)
# [1] 279

# number of edges
print(activity_net$edges, n = 3)
# # A tibble: 281 x 3
#   from                to                  type      
#   <chr>               <chr>               <chr>     
# 1 1376337359126495232 1376328523518898176 replied_to
# 2 1376337350163267584 1376325216658317315 replied_to
# 3 1376337128016113665 1376311897624956929 replied_to
# # ... with 278 more rows
…
# generate an actor network
actor_net <- tcn_network(tweets, "actor")

# number of nodes or actors
nrow(actor_net$nodes)
# [1] 180

print(actor_net$edges, n = 3)
# # A tibble: 286 x 6
#   from      to        type  tweet_id     created_at    text                     
#   <chr>     <chr>     <chr> <chr>        <chr>         <chr>                    
# 1 13485220~ 15999128~ reply 13763373591~ 2021-03-29T0~ "@Ther~ @Scott~
# 2 12690838~ 11423168~ reply 13763373501~ 2021-03-29T0~ "@Luke~ @Annas~
# 3 13750390~ 25683344~ reply 13763371280~ 2021-03-29T0~ "@AnnastaciaMP You do un~
# # ... with 283 more rows
…
