…
```{r, echo=FALSE, fig.cap="rstats2twitter app authorization", out.width = NA}
knitr::include_graphics("rtweet_auth.png")
```

If API authentication and search succeeds then the `search_tweets` function will return a data frame of tweet data. The data frame will have up to 100 rows, one for each tweet collected and 90 columns for associated tweet metadata:

```{r tweets-data, echo=TRUE, eval=FALSE}
library(tibble)

# print the first 2 rows
print(auspol_tweets, n = 2)
# # A tibble: 100 x 90
#   user_id  status_id  created_at          screen_name text      source
#   <chr>    <chr>      <dttm>              <chr>       <chr>     <chr> 
# 1 27007685 136400068~ 2021-02-22 23:54:39 ronth~      "@janeen~ Twitt~
# 2 1359301~ 136400067~ 2021-02-22 23:54:37 Injur~      "When th~ Twitt~
```
```{r tweets-data-tibble, echo=TRUE, eval=FALSE, code_folding="Show additional columns"}
# # ... with 98 more rows, and 84 more variables:
# #   display_text_width <dbl>, reply_to_status_id <chr>,
# #   reply_to_user_id <chr>, reply_to_screen_name <chr>,
# #   is_quote <lgl>, is_retweet <lgl>, favorite_count <int>,
# #   retweet_count <int>, quote_count <int>, reply_count <int>,
# #   hashtags <list>, symbols <list>, urls_url <list>,
# #   urls_t.co <list>, urls_expanded_url <list>, media_url <list>,
# #   media_t.co <list>, media_expanded_url <list>, media_type <list>,
# #   ext_media_url <list>, ext_media_t.co <list>,
…
